<?xml version="1.0" encoding="UTF-8" standalone="no"?>
<!-- Created with Inkscape (http://www.inkscape.org/) -->

<svg
   xmlns:dc="http://purl.org/dc/elements/1.1/"
   xmlns:cc="http://creativecommons.org/ns#"
   xmlns:rdf="http://www.w3.org/1999/02/22-rdf-syntax-ns#"
   xmlns:svg="http://www.w3.org/2000/svg"
   xmlns="http://www.w3.org/2000/svg"
   xmlns:xlink="http://www.w3.org/1999/xlink"
   xmlns:sodipodi="http://sodipodi.sourceforge.net/DTD/sodipodi-0.dtd"
   xmlns:inkscape="http://www.inkscape.org/namespaces/inkscape"
   width="100"
   height="100"
   id="svg2"
   sodipodi:version="0.32"
   inkscape:version="0.47 r22583"
   sodipodi:docname="background.svgz"
   inkscape:output_extension="org.inkscape.output.svgz.inkscape"
   version="1.0">
  <sodipodi:namedview
     id="base"
     pagecolor="#1e1e1e"
     bordercolor="#666666"
     borderopacity="1.0"
     gridtolerance="10000"
     guidetolerance="10"
     objecttolerance="10"
     inkscape:pageopacity="1"
     inkscape:pageshadow="2"
     inkscape:zoom="4.4441992"
     inkscape:cx="49.5"
     inkscape:cy="40.81214"
     inkscape:document-units="px"
     inkscape:current-layer="layer2"
     inkscape:window-width="1440"
     inkscape:window-height="813"
     inkscape:window-x="-4"
     inkscape:window-y="-3"
     showguides="true"
     inkscape:guide-bbox="true"
     showgrid="true"
     inkscape:window-maximized="1">
    <inkscape:grid
       type="xygrid"
       id="grid4397"
       visible="true"
       enabled="true" />
  </sodipodi:namedview>
  <defs
     id="defs4">
    <linearGradient
       id="linearGradient4226">
      <stop
         style="stop-color:#ffffff;stop-opacity:0.35135135;"
         offset="0"
         id="stop4228" />
      <stop
         style="stop-color:#ffffff;stop-opacity:0;"
         offset="1"
         id="stop4230" />
    </linearGradient>
    <linearGradient
       inkscape:collect="always"
       id="linearGradient3681">
      <stop
         style="stop-color:#ffffff;stop-opacity:1;"
         offset="0"
         id="stop3683" />
      <stop
         style="stop-color:#ffffff;stop-opacity:0;"
         offset="1"
         id="stop3685" />
    </linearGradient>
    <linearGradient
       id="linearGradient3645">
      <stop
         style="stop-color:#0a0a0a;stop-opacity:0.39215687;"
         offset="0"
         id="stop3647" />
      <stop
         id="stop4220"
         offset="0.5"
         style="stop-color:#0a0a0a;stop-opacity:0.03921569;" />
      <stop
         style="stop-color:#0a0a0a;stop-opacity:0;"
         offset="1"
         id="stop3649" />
    </linearGradient>
    <linearGradient
       id="linearGradient3667">
      <stop
         style="stop-color:#0a0a0a;stop-opacity:0;"
         offset="0"
         id="stop3669" />
      <stop
         id="stop4222"
         offset="0.5"
         style="stop-color:#0a0a0a;stop-opacity:0.03921569;" />
      <stop
         style="stop-color:#0a0a0a;stop-opacity:0.39215687;"
         offset="1"
         id="stop3671" />
    </linearGradient>
    <linearGradient
       inkscape:collect="always"
       id="linearGradient3279">
      <stop
         style="stop-color:#ffffff;stop-opacity:0"
         offset="0"
         id="stop3281" />
      <stop
         id="stop3289"
         offset="0.41737679"
         style="stop-color:#ffffff;stop-opacity:0" />
      <stop
         id="stop3287"
         offset="0.74810594"
         style="stop-color:#ffffff;stop-opacity:0.247" />
      <stop
         style="stop-color:#ffffff;stop-opacity:0;"
         offset="1"
         id="stop3283" />
    </linearGradient>
    <linearGradient
       inkscape:collect="always"
       id="linearGradient3322">
      <stop
         style="stop-color:#ffffff;stop-opacity:0.247"
         offset="0"
         id="stop3324" />
      <stop
         style="stop-color:#ffffff;stop-opacity:0;"
         offset="1"
         id="stop3326" />
    </linearGradient>
    <inkscape:perspective
       sodipodi:type="inkscape:persp3d"
       inkscape:vp_x="0 : 526.18109 : 1"
       inkscape:vp_y="0 : 1000 : 0"
       inkscape:vp_z="744.09448 : 526.18109 : 1"
       inkscape:persp3d-origin="372.04724 : 350.78739 : 1"
       id="perspective112" />
    <radialGradient
       inkscape:collect="always"
       xlink:href="#linearGradient4226"
       id="radialGradient5019"
       gradientUnits="userSpaceOnUse"
       gradientTransform="matrix(1.325,0,0,1.875,208.75,-83.437505)"
       cx="50"
       cy="92.5"
       fx="50"
       fy="92.5"
       r="40" />
    <linearGradient
       inkscape:collect="always"
       xlink:href="#linearGradient3645"
       id="linearGradient5021"
       gradientUnits="userSpaceOnUse"
       gradientTransform="matrix(1,0,0,1.0769231,5,-331.53846)"
       x1="10"
       y1="52.5"
       x2="15"
       y2="52.5" />
    <radialGradient
       inkscape:collect="always"
       xlink:href="#linearGradient3645"
       id="radialGradient5023"
       gradientUnits="userSpaceOnUse"
       gradientTransform="matrix(2,0,0,26,-135,1280)"
       cx="-90"
       cy="-50"
       fx="-90"
       fy="-50"
       r="2.5" />
    <radialGradient
       inkscape:collect="always"
       xlink:href="#linearGradient3667"
       id="radialGradient5025"
       gradientUnits="userSpaceOnUse"
       gradientTransform="matrix(2.4307765e-7,-1.9999998,2,2.0384709e-7,-25.000004,49.999993)"
       cx="15"
       cy="20"
       fx="15"
       fy="20"
       r="2.5" />
    <radialGradient
       inkscape:collect="always"
       xlink:href="#linearGradient3681"
       id="radialGradient5027"
       gradientUnits="userSpaceOnUse"
       gradientTransform="matrix(1,0,0,0.2857143,225,2.142854)"
       cx="50"
       cy="45.000008"
       fx="50"
       fy="45.000008"
       r="35" />
    <radialGradient
       inkscape:collect="always"
       xlink:href="#linearGradient3681"
       id="radialGradient5029"
       gradientUnits="userSpaceOnUse"
       gradientTransform="matrix(1,0,0,0.1428571,-325,-96.428575)"
       cx="50"
       cy="45.000008"
       fx="50"
       fy="45.000008"
       r="35" />
    <linearGradient
       inkscape:collect="always"
       xlink:href="#linearGradient3279"
       id="linearGradient5031"
       gradientUnits="userSpaceOnUse"
       gradientTransform="matrix(1,0,0,1.0833333,225,11.75)"
       x1="46"
       y1="3"
       x2="46"
       y2="-9" />
    <radialGradient
       inkscape:collect="always"
       xlink:href="#linearGradient3279"
       id="radialGradient5033"
       gradientUnits="userSpaceOnUse"
       gradientTransform="matrix(-1.6190599e-6,-10.399999,-10.399998,1.6190595e-6,440,144.99995)"
       cx="12.5"
       cy="12.5"
       fx="12.5"
       fy="12.5"
       r="1.25" />
    <linearGradient
       inkscape:collect="always"
       xlink:href="#linearGradient3279"
       id="linearGradient5035"
       gradientUnits="userSpaceOnUse"
       gradientTransform="translate(225,0)"
       x1="50"
       y1="14"
       x2="50"
       y2="2" />
    <radialGradient
       inkscape:collect="always"
       xlink:href="#linearGradient3322"
       id="radialGradient5037"
       gradientUnits="userSpaceOnUse"
       gradientTransform="matrix(-5.5586529e-5,43.333332,-1.9999867,-6.7774557e-6,400.29911,231.50445)"
       cx="-4.9962506"
       cy="40.149952"
       fx="-4.9962506"
       fy="40.149952"
       r="1.5" />
    <radialGradient
       inkscape:collect="always"
       xlink:href="#linearGradient3322"
       id="radialGradient5039"
       gradientUnits="userSpaceOnUse"
       gradientTransform="matrix(-5.5586529e-5,43.333332,-1.9999867,-6.7774557e-6,-239.70089,236.50445)"
       cx="-4.9962506"
       cy="40.149952"
       fx="-4.9962506"
       fy="40.149952"
       r="1.5" />
    <linearGradient
       inkscape:collect="always"
       xlink:href="#linearGradient3322"
       id="linearGradient5041"
       gradientUnits="userSpaceOnUse"
       gradientTransform="matrix(1,0,0,0.125,-322,-21.875)"
       x1="2"
       y1="35"
       x2="5"
       y2="35" />
    <radialGradient
       inkscape:collect="always"
       xlink:href="#linearGradient3645"
       id="radialGradient5043"
       gradientUnits="userSpaceOnUse"
       gradientTransform="matrix(2,0,0,26,415,1280)"
       cx="-90"
       cy="-50"
       fx="-90"
       fy="-50"
       r="2.5" />
    <radialGradient
       inkscape:collect="always"
       xlink:href="#linearGradient3667"
       id="radialGradient5045"
       gradientUnits="userSpaceOnUse"
       gradientTransform="matrix(2.4307765e-7,-1.9999998,2,2.0384709e-7,-25.000004,49.999993)"
       cx="15"
       cy="20"
       fx="15"
       fy="20"
       r="2.5" />
    <radialGradient
       inkscape:collect="always"
       xlink:href="#linearGradient3279"
       id="radialGradient5047"
       gradientUnits="userSpaceOnUse"
       gradientTransform="matrix(1.6190599e-6,-10.399999,10.399998,1.6190595e-6,110,144.99995)"
       cx="12.5"
       cy="12.5"
       fx="12.5"
       fy="12.5"
       r="1.25" />
    <radialGradient
       inkscape:collect="always"
       xlink:href="#linearGradient3322"
       id="radialGradient5049"
       gradientUnits="userSpaceOnUse"
       gradientTransform="matrix(-5.5586529e-5,43.333332,-1.9999867,-6.7774557e-6,-149.70089,231.50445)"
       cx="-4.9962506"
       cy="40.149952"
       fx="-4.9962506"
       fy="40.149952"
       r="1.5" />
    <radialGradient
       inkscape:collect="always"
       xlink:href="#linearGradient3322"
       id="radialGradient5051"
       gradientUnits="userSpaceOnUse"
       gradientTransform="matrix(-5.5586529e-5,43.333332,-1.9999867,-6.7774557e-6,310.29911,236.50445)"
       cx="-4.9962506"
       cy="40.149952"
       fx="-4.9962506"
       fy="40.149952"
       r="1.5" />
    <linearGradient
       inkscape:collect="always"
       xlink:href="#linearGradient3322"
       id="linearGradient5053"
       gradientUnits="userSpaceOnUse"
       gradientTransform="matrix(1,0,0,0.125,228,-21.875)"
       x1="2"
       y1="35"
       x2="5"
       y2="35" />
    <radialGradient
       inkscape:collect="always"
       xlink:href="#linearGradient4226"
       id="radialGradient5458"
       gradientUnits="userSpaceOnUse"
       gradientTransform="matrix(1.325,0,0,1.875,88.75,-83.437505)"
       cx="50"
       cy="92.5"
       fx="50"
       fy="92.5"
       r="40" />
    <radialGradient
       inkscape:collect="always"
       xlink:href="#linearGradient3681"
       id="radialGradient5468"
       gradientUnits="userSpaceOnUse"
       gradientTransform="matrix(1,0,0,0.1428571,-100,-96.428575)"
       cx="50"
       cy="45.000008"
       fx="50"
       fy="45.000008"
       r="35" />
    <radialGradient
       inkscape:collect="always"
       xlink:href="#linearGradient4226"
       id="radialGradient5514"
       gradientUnits="userSpaceOnUse"
       gradientTransform="matrix(1.325,0,0,1.875,-16.25,-83.437505)"
       cx="50"
       cy="92.5"
       fx="50"
       fy="92.5"
       r="40" />
    <radialGradient
       inkscape:collect="always"
       xlink:href="#linearGradient3667"
       id="radialGradient5516"
       gradientUnits="userSpaceOnUse"
       gradientTransform="matrix(2.4307765e-7,-1.9999998,2,2.0384709e-7,-25.000004,49.999993)"
       cx="15"
       cy="20"
       fx="15"
       fy="20"
       r="2.5" />
    <linearGradient
       inkscape:collect="always"
       xlink:href="#linearGradient3322"
       id="linearGradient5520"
       gradientUnits="userSpaceOnUse"
       gradientTransform="matrix(1,0,0,0.125,3.0000002,-21.875)"
       x1="2"
       y1="35"
       x2="5"
       y2="35" />
    <linearGradient
       inkscape:collect="always"
       xlink:href="#linearGradient3322"
       id="linearGradient5522"
       gradientUnits="userSpaceOnUse"
       gradientTransform="matrix(1.0000006,0,0,0.125,-7.0000049,-21.875)"
       x1="2"
       y1="35"
       x2="5"
       y2="35" />
    <radialGradient
       inkscape:collect="always"
       xlink:href="#linearGradient4226"
       id="radialGradient5538"
       gradientUnits="userSpaceOnUse"
       gradientTransform="matrix(1.325,0,0,1.875,88.75,-83.437505)"
       cx="50"
       cy="92.5"
       fx="50"
       fy="92.5"
       r="40" />
    <radialGradient
       inkscape:collect="always"
       xlink:href="#linearGradient4226"
       id="radialGradient5541"
       gradientUnits="userSpaceOnUse"
       gradientTransform="matrix(1.325,0,0,1.875,-16.25,-83.437505)"
       cx="50"
       cy="92.5"
       fx="50"
       fy="92.5"
       r="40" />
    <radialGradient
       inkscape:collect="always"
       xlink:href="#linearGradient4226"
       id="radialGradient5587"
       gradientUnits="userSpaceOnUse"
       gradientTransform="matrix(1.325,0,0,1.875,88.75,-83.437505)"
       cx="50"
       cy="92.5"
       fx="50"
       fy="92.5"
       r="40" />
    <linearGradient
       inkscape:collect="always"
       xlink:href="#linearGradient3645"
       id="linearGradient5589"
       gradientUnits="userSpaceOnUse"
       gradientTransform="matrix(1,0,0,1.0769231,5,-211.53846)"
       x1="10"
       y1="52.5"
       x2="15"
       y2="52.5" />
    <radialGradient
       inkscape:collect="always"
       xlink:href="#linearGradient3645"
       id="radialGradient5591"
       gradientUnits="userSpaceOnUse"
       gradientTransform="matrix(2,0,0,26,-15,1280)"
       cx="-90"
       cy="-50"
       fx="-90"
       fy="-50"
       r="2.5" />
    <radialGradient
       inkscape:collect="always"
       xlink:href="#linearGradient3667"
       id="radialGradient5593"
       gradientUnits="userSpaceOnUse"
       gradientTransform="matrix(2.4307765e-7,-1.9999998,2,2.0384709e-7,-25.000004,49.999993)"
       cx="15"
       cy="20"
       fx="15"
       fy="20"
       r="2.5" />
    <radialGradient
       inkscape:collect="always"
       xlink:href="#linearGradient3681"
       id="radialGradient5595"
       gradientUnits="userSpaceOnUse"
       gradientTransform="matrix(1,0,0,0.1428571,-205,-96.428575)"
       cx="50"
       cy="45.000008"
       fx="50"
       fy="45.000008"
       r="35" />
    <radialGradient
       inkscape:collect="always"
       xlink:href="#linearGradient3322"
       id="radialGradient5597"
       gradientUnits="userSpaceOnUse"
       gradientTransform="matrix(-5.5586529e-5,43.333332,-1.9999867,-6.7774557e-6,280.29911,231.50445)"
       cx="-4.9962506"
       cy="40.149952"
       fx="-4.9962506"
       fy="40.149952"
       r="1.5" />
    <radialGradient
       inkscape:collect="always"
       xlink:href="#linearGradient3322"
       id="radialGradient5599"
       gradientUnits="userSpaceOnUse"
       gradientTransform="matrix(-5.5586529e-5,43.333332,-1.9999867,-6.7774557e-6,-119.70089,236.50445)"
       cx="-4.9962506"
       cy="40.149952"
       fx="-4.9962506"
       fy="40.149952"
       r="1.5" />
    <linearGradient
       inkscape:collect="always"
       xlink:href="#linearGradient3322"
       id="linearGradient5601"
       gradientUnits="userSpaceOnUse"
       gradientTransform="matrix(1,0,0,0.125,-202,-21.875)"
       x1="2"
       y1="35"
       x2="5"
       y2="35" />
    <radialGradient
       inkscape:collect="always"
       xlink:href="#linearGradient3645"
       id="radialGradient5603"
       gradientUnits="userSpaceOnUse"
       gradientTransform="matrix(2,0,0,26,295,1280)"
       cx="-90"
       cy="-50"
       fx="-90"
       fy="-50"
       r="2.5" />
    <radialGradient
       inkscape:collect="always"
       xlink:href="#linearGradient3667"
       id="radialGradient5605"
       gradientUnits="userSpaceOnUse"
       gradientTransform="matrix(2.4307765e-7,-1.9999998,2,2.0384709e-7,-25.000004,49.999993)"
       cx="15"
       cy="20"
       fx="15"
       fy="20"
       r="2.5" />
    <radialGradient
       inkscape:collect="always"
       xlink:href="#linearGradient3322"
       id="radialGradient5607"
       gradientUnits="userSpaceOnUse"
       gradientTransform="matrix(-5.5586529e-5,43.333332,-1.9999867,-6.7774557e-6,-29.70089,231.50445)"
       cx="-4.9962506"
       cy="40.149952"
       fx="-4.9962506"
       fy="40.149952"
       r="1.5" />
    <radialGradient
       inkscape:collect="always"
       xlink:href="#linearGradient3322"
       id="radialGradient5609"
       gradientUnits="userSpaceOnUse"
       gradientTransform="matrix(-5.5586529e-5,43.333332,-1.9999867,-6.7774557e-6,190.29911,236.50445)"
       cx="-4.9962506"
       cy="40.149952"
       fx="-4.9962506"
       fy="40.149952"
       r="1.5" />
    <linearGradient
       inkscape:collect="always"
       xlink:href="#linearGradient3322"
       id="linearGradient5611"
       gradientUnits="userSpaceOnUse"
       gradientTransform="matrix(1,0,0,0.125,108,-21.875)"
       x1="2"
       y1="35"
       x2="5"
       y2="35" />
    <radialGradient
       inkscape:collect="always"
       xlink:href="#linearGradient4226"
       id="radialGradient5623"
       gradientUnits="userSpaceOnUse"
       gradientTransform="matrix(1.325,0,0,1.875,-16.25,-83.437505)"
       cx="50"
       cy="92.5"
       fx="50"
       fy="92.5"
       r="40" />
    <radialGradient
       inkscape:collect="always"
       xlink:href="#linearGradient4226"
       id="radialGradient3774"
       gradientUnits="userSpaceOnUse"
       gradientTransform="matrix(1.325,0,0,1.875,-16.25,-83.437505)"
       cx="50"
       cy="92.5"
       fx="50"
       fy="92.5"
       r="40" />
    <radialGradient
       inkscape:collect="always"
       xlink:href="#linearGradient3667"
       id="radialGradient3776"
       gradientUnits="userSpaceOnUse"
       gradientTransform="matrix(2.4307765e-7,-1.9999998,2,2.0384709e-7,-25.000004,49.999993)"
       cx="15"
       cy="20"
       fx="15"
       fy="20"
       r="2.5" />
    <radialGradient
       inkscape:collect="always"
       xlink:href="#linearGradient4226"
       id="radialGradient3780"
       gradientUnits="userSpaceOnUse"
       gradientTransform="matrix(1.5,1.2499998e-7,-1.5624998e-7,1.875,-24.999986,-83.437511)"
       cx="50"
       cy="92.5"
       fx="50"
       fy="92.5"
       r="40" />
    <radialGradient
       inkscape:collect="always"
       xlink:href="#linearGradient4226"
       id="radialGradient3782"
       gradientUnits="userSpaceOnUse"
       gradientTransform="matrix(1.625,1.25e-7,-1.4423077e-7,1.875,-31.249987,-83.437511)"
       cx="50"
       cy="92.5"
       fx="50"
       fy="92.5"
       r="40" />
    <radialGradient
       inkscape:collect="always"
       xlink:href="#linearGradient4226"
       id="radialGradient3786"
       gradientUnits="userSpaceOnUse"
       gradientTransform="matrix(1.5,1.2500002e-7,-1.5625003e-7,1.875,-24.999986,-83.437511)"
       cx="50"
       cy="92.5"
       fx="50"
       fy="92.5"
       r="40" />
    <radialGradient
       inkscape:collect="always"
       xlink:href="#linearGradient4226"
       id="radialGradient3788"
       gradientUnits="userSpaceOnUse"
       gradientTransform="matrix(1.325,0,0,1.875,-21.25,-83.437505)"
       cx="50"
       cy="92.5"
       fx="50"
       fy="92.5"
       r="40" />
    <radialGradient
       inkscape:collect="always"
       xlink:href="#linearGradient3645"
       id="radialGradient3790"
       gradientUnits="userSpaceOnUse"
       gradientTransform="matrix(2,0,0,26,190,1280)"
       cx="-90"
       cy="-50"
       fx="-90"
       fy="-50"
       r="2.5" />
    <radialGradient
       inkscape:collect="always"
       xlink:href="#linearGradient4226"
       id="radialGradient3796"
       gradientUnits="userSpaceOnUse"
       gradientTransform="matrix(1.325,0,0,1.875,88.75,-103.43751)"
       cx="50"
       cy="92.5"
       fx="50"
       fy="92.5"
       r="40" />
    <linearGradient
       inkscape:collect="always"
       xlink:href="#linearGradient3645"
       id="linearGradient3798"
       gradientUnits="userSpaceOnUse"
       gradientTransform="matrix(1,0,0,1.0769231,-15,-211.53846)"
       x1="10"
       y1="52.5"
       x2="15"
       y2="52.5" />
    <radialGradient
       inkscape:collect="always"
       xlink:href="#linearGradient3681"
       id="radialGradient3800"
       gradientUnits="userSpaceOnUse"
       gradientTransform="matrix(1,0,0,0.2857143,105,-17.857146)"
       cx="50"
       cy="45.000008"
       fx="50"
       fy="45.000008"
       r="35" />
    <radialGradient
       inkscape:collect="always"
       xlink:href="#linearGradient4226"
       id="radialGradient3934"
       gradientUnits="userSpaceOnUse"
       gradientTransform="matrix(1.325,0,0,1.875,-16.25,-83.437505)"
       cx="50"
       cy="92.5"
       fx="50"
       fy="92.5"
       r="40" />
    <radialGradient
       inkscape:collect="always"
       xlink:href="#linearGradient3667"
       id="radialGradient3936"
       gradientUnits="userSpaceOnUse"
       gradientTransform="matrix(2.4307765e-7,-1.9999998,2,2.0384709e-7,-25.000004,49.999993)"
       cx="15"
       cy="20"
       fx="15"
       fy="20"
       r="2.5" />
    <radialGradient
       inkscape:collect="always"
       xlink:href="#linearGradient4226"
       id="radialGradient3942"
       gradientUnits="userSpaceOnUse"
       gradientTransform="matrix(1.325,0,0,1.875,88.75,-103.43751)"
       cx="50"
       cy="92.5"
       fx="50"
       fy="92.5"
       r="40" />
    <linearGradient
       inkscape:collect="always"
       xlink:href="#linearGradient3645"
       id="linearGradient3944"
       gradientUnits="userSpaceOnUse"
       gradientTransform="matrix(1,0,0,1.0769231,-15,-211.53846)"
       x1="10"
       y1="52.5"
       x2="15"
       y2="52.5" />
    <radialGradient
       inkscape:collect="always"
       xlink:href="#linearGradient3681"
       id="radialGradient3946"
       gradientUnits="userSpaceOnUse"
       gradientTransform="matrix(1,0,0,0.2857143,105,-17.857146)"
       cx="50"
       cy="45.000008"
       fx="50"
       fy="45.000008"
       r="35" />
    <radialGradient
       inkscape:collect="always"
       xlink:href="#linearGradient4226"
       id="radialGradient3948"
       gradientUnits="userSpaceOnUse"
       gradientTransform="matrix(1.325,0,0,1.875,-21.25,-83.437505)"
       cx="50"
       cy="92.5"
       fx="50"
       fy="92.5"
       r="40" />
    <radialGradient
       inkscape:collect="always"
       xlink:href="#linearGradient3645"
       id="radialGradient3950"
       gradientUnits="userSpaceOnUse"
       gradientTransform="matrix(2,0,0,26,190,1280)"
       cx="-90"
       cy="-50"
       fx="-90"
       fy="-50"
       r="2.5" />
    <radialGradient
       inkscape:collect="always"
       xlink:href="#linearGradient4226"
       id="radialGradient3956"
       gradientUnits="userSpaceOnUse"
       gradientTransform="matrix(1.5,1.2500002e-7,-1.5625003e-7,1.875,-24.999986,-83.437511)"
       cx="50"
       cy="92.5"
       fx="50"
       fy="92.5"
       r="40" />
    <radialGradient
       inkscape:collect="always"
       xlink:href="#linearGradient4226"
       id="radialGradient3958"
       gradientUnits="userSpaceOnUse"
       gradientTransform="matrix(1.625,1.25e-7,-1.4423077e-7,1.875,-31.249987,-83.437511)"
       cx="50"
       cy="92.5"
       fx="50"
       fy="92.5"
       r="40" />
    <radialGradient
       inkscape:collect="always"
       xlink:href="#linearGradient4226"
       id="radialGradient3962"
       gradientUnits="userSpaceOnUse"
       gradientTransform="matrix(1.5,1.2499998e-7,-1.5624998e-7,1.875,-24.999986,-83.437511)"
       cx="50"
       cy="92.5"
       fx="50"
       fy="92.5"
       r="40" />
    <radialGradient
       inkscape:collect="always"
       xlink:href="#linearGradient4226"
       id="radialGradient4110"
       gradientUnits="userSpaceOnUse"
       gradientTransform="matrix(0.94642857,0,0,1.875,-10.892857,-83.437505)"
       cx="50"
       cy="92.5"
       fx="50"
       fy="92.5"
       r="40" />
    <radialGradient
       inkscape:collect="always"
       xlink:href="#linearGradient3645"
       id="radialGradient4112"
       gradientUnits="userSpaceOnUse"
       gradientTransform="matrix(2,0,0,26,190,1280)"
       cx="-90"
       cy="-50"
       fx="-90"
       fy="-50"
       r="2.5" />
    <radialGradient
       inkscape:collect="always"
       xlink:href="#linearGradient4226"
       id="radialGradient4114"
       gradientUnits="userSpaceOnUse"
       gradientTransform="matrix(1.5,1.2500002e-7,-1.5625003e-7,1.875,-24.999986,-83.437511)"
       cx="50"
       cy="92.5"
       fx="50"
       fy="92.5"
       r="40" />
    <radialGradient
       inkscape:collect="always"
       xlink:href="#linearGradient4226"
       id="radialGradient5294"
       gradientUnits="userSpaceOnUse"
       gradientTransform="matrix(1.325,0,0,1.875,-21.25,-83.437505)"
       cx="50"
       cy="92.5"
       fx="50"
       fy="92.5"
       r="40" />
    <radialGradient
       inkscape:collect="always"
       xlink:href="#linearGradient3645"
       id="radialGradient5296"
       gradientUnits="userSpaceOnUse"
       gradientTransform="matrix(2,0,0,26,190,1280)"
       cx="-90"
       cy="-50"
       fx="-90"
       fy="-50"
       r="2.5" />
    <radialGradient
       inkscape:collect="always"
       xlink:href="#linearGradient4226"
       id="radialGradient5302"
       gradientUnits="userSpaceOnUse"
       gradientTransform="matrix(1.5,1.2500002e-7,-1.5625003e-7,1.875,-24.999986,-83.437511)"
       cx="50"
       cy="92.5"
       fx="50"
       fy="92.5"
       r="40" />
    <radialGradient
       inkscape:collect="always"
       xlink:href="#linearGradient4226"
       id="radialGradient6836"
       gradientUnits="userSpaceOnUse"
       gradientTransform="matrix(1.325,0,0,1.875,-16.25,-83.437505)"
       cx="50"
       cy="92.5"
       fx="50"
       fy="92.5"
       r="40" />
    <radialGradient
       inkscape:collect="always"
       xlink:href="#linearGradient3667"
       id="radialGradient6838"
       gradientUnits="userSpaceOnUse"
       gradientTransform="matrix(2.4307765e-7,-1.9999998,2,2.0384709e-7,-25.000004,49.999993)"
       cx="15"
       cy="20"
       fx="15"
       fy="20"
       r="2.5" />
    <radialGradient
       inkscape:collect="always"
       xlink:href="#linearGradient4226"
       id="radialGradient6840"
       gradientUnits="userSpaceOnUse"
       gradientTransform="matrix(1.325,0,0,1.875,-16.25,-83.437505)"
       cx="50"
       cy="92.5"
       fx="50"
       fy="92.5"
       r="40" />
    <radialGradient
       inkscape:collect="always"
       xlink:href="#linearGradient3667"
       id="radialGradient6842"
       gradientUnits="userSpaceOnUse"
       gradientTransform="matrix(2.4307765e-7,-1.9999998,2,2.0384709e-7,-25.000004,49.999993)"
       cx="15"
       cy="20"
       fx="15"
       fy="20"
       r="2.5" />
    <radialGradient
       inkscape:collect="always"
       xlink:href="#linearGradient4226"
       id="radialGradient6844"
       gradientUnits="userSpaceOnUse"
       gradientTransform="matrix(1.325,0,0,1.875,88.75,-103.43751)"
       cx="50"
       cy="92.5"
       fx="50"
       fy="92.5"
       r="40" />
    <linearGradient
       inkscape:collect="always"
       xlink:href="#linearGradient3645"
       id="linearGradient6846"
       gradientUnits="userSpaceOnUse"
       gradientTransform="matrix(1,0,0,1.0769231,-15,-211.53846)"
       x1="10"
       y1="52.5"
       x2="15"
       y2="52.5" />
    <radialGradient
       inkscape:collect="always"
       xlink:href="#linearGradient3681"
       id="radialGradient6848"
       gradientUnits="userSpaceOnUse"
       gradientTransform="matrix(1,0,0,0.2857143,105,-17.857146)"
       cx="50"
       cy="45.000008"
       fx="50"
       fy="45.000008"
       r="35" />
    <radialGradient
       inkscape:collect="always"
       xlink:href="#linearGradient4226"
       id="radialGradient6850"
       gradientUnits="userSpaceOnUse"
       gradientTransform="matrix(1.325,0,0,1.875,-21.25,-83.437505)"
       cx="50"
       cy="92.5"
       fx="50"
       fy="92.5"
       r="40" />
    <radialGradient
       inkscape:collect="always"
       xlink:href="#linearGradient3645"
       id="radialGradient6852"
       gradientUnits="userSpaceOnUse"
       gradientTransform="matrix(2,0,0,26,190,1280)"
       cx="-90"
       cy="-50"
       fx="-90"
       fy="-50"
       r="2.5" />
    <radialGradient
       inkscape:collect="always"
       xlink:href="#linearGradient4226"
       id="radialGradient6854"
       gradientUnits="userSpaceOnUse"
       gradientTransform="matrix(1.325,0,0,1.875,-21.25,-83.437505)"
       cx="50"
       cy="92.5"
       fx="50"
       fy="92.5"
       r="40" />
    <radialGradient
       inkscape:collect="always"
       xlink:href="#linearGradient3645"
       id="radialGradient6856"
       gradientUnits="userSpaceOnUse"
       gradientTransform="matrix(2,0,0,26,190,1280)"
       cx="-90"
       cy="-50"
       fx="-90"
       fy="-50"
       r="2.5" />
    <radialGradient
       inkscape:collect="always"
       xlink:href="#linearGradient4226"
       id="radialGradient6858"
       gradientUnits="userSpaceOnUse"
       gradientTransform="matrix(1.5,1.2500002e-7,-1.5625003e-7,1.875,-24.999986,-83.437511)"
       cx="50"
       cy="92.5"
       fx="50"
       fy="92.5"
       r="40" />
    <radialGradient
       inkscape:collect="always"
       xlink:href="#linearGradient4226"
       id="radialGradient6860"
       gradientUnits="userSpaceOnUse"
       gradientTransform="matrix(1.625,1.25e-7,-1.4423077e-7,1.875,-31.249987,-83.437511)"
       cx="50"
       cy="92.5"
       fx="50"
       fy="92.5"
       r="40" />
    <radialGradient
       inkscape:collect="always"
       xlink:href="#linearGradient4226"
       id="radialGradient6862"
       gradientUnits="userSpaceOnUse"
       gradientTransform="matrix(1.625,1.25e-7,-1.4423077e-7,1.875,-31.249987,-83.437511)"
       cx="50"
       cy="92.5"
       fx="50"
       fy="92.5"
       r="40" />
    <radialGradient
       inkscape:collect="always"
       xlink:href="#linearGradient4226"
       id="radialGradient6864"
       gradientUnits="userSpaceOnUse"
       gradientTransform="matrix(1.5,1.2499998e-7,-1.5624998e-7,1.875,-24.999986,-83.437511)"
       cx="50"
       cy="92.5"
       fx="50"
       fy="92.5"
       r="40" />
    <radialGradient
       inkscape:collect="always"
       xlink:href="#linearGradient4226"
       id="radialGradient6994"
       gradientUnits="userSpaceOnUse"
       gradientTransform="matrix(1.325,0,0,1.875,-16.25,-83.437505)"
       cx="50"
       cy="92.5"
       fx="50"
       fy="92.5"
       r="40" />
    <radialGradient
       inkscape:collect="always"
       xlink:href="#linearGradient3667"
       id="radialGradient6996"
       gradientUnits="userSpaceOnUse"
       gradientTransform="matrix(2.4307765e-7,-1.9999998,2,2.0384709e-7,-25.000004,49.999993)"
       cx="15"
       cy="20"
       fx="15"
       fy="20"
       r="2.5" />
    <radialGradient
       inkscape:collect="always"
       xlink:href="#linearGradient4226"
       id="radialGradient6998"
       gradientUnits="userSpaceOnUse"
       gradientTransform="matrix(1.325,0,0,1.875,-16.25,-83.437505)"
       cx="50"
       cy="92.5"
       fx="50"
       fy="92.5"
       r="40" />
    <radialGradient
       inkscape:collect="always"
       xlink:href="#linearGradient3667"
       id="radialGradient7000"
       gradientUnits="userSpaceOnUse"
       gradientTransform="matrix(2.4307765e-7,-1.9999998,2,2.0384709e-7,-25.000004,49.999993)"
       cx="15"
       cy="20"
       fx="15"
       fy="20"
       r="2.5" />
    <radialGradient
       inkscape:collect="always"
       xlink:href="#linearGradient4226"
       id="radialGradient7002"
       gradientUnits="userSpaceOnUse"
       gradientTransform="matrix(1.325,0,0,1.875,88.75,-103.43751)"
       cx="50"
       cy="92.5"
       fx="50"
       fy="92.5"
       r="40" />
    <linearGradient
       inkscape:collect="always"
       xlink:href="#linearGradient3645"
       id="linearGradient7004"
       gradientUnits="userSpaceOnUse"
       gradientTransform="matrix(1,0,0,1.0769231,-15,-211.53846)"
       x1="10"
       y1="52.5"
       x2="15"
       y2="52.5" />
    <radialGradient
       inkscape:collect="always"
       xlink:href="#linearGradient3681"
       id="radialGradient7006"
       gradientUnits="userSpaceOnUse"
       gradientTransform="matrix(1,0,0,0.2857143,105,-17.857146)"
       cx="50"
       cy="45.000008"
       fx="50"
       fy="45.000008"
       r="35" />
    <radialGradient
       inkscape:collect="always"
       xlink:href="#linearGradient4226"
       id="radialGradient7008"
       gradientUnits="userSpaceOnUse"
       gradientTransform="matrix(0.85178571,0,0,1.875,-8.3035714,-83.437505)"
       cx="50"
       cy="92.5"
       fx="50"
       fy="92.5"
       r="40" />
    <radialGradient
       inkscape:collect="always"
       xlink:href="#linearGradient3645"
       id="radialGradient7010"
       gradientUnits="userSpaceOnUse"
       gradientTransform="matrix(2,0,0,26,190,1280)"
       cx="-90"
       cy="-50"
       fx="-90"
       fy="-50"
       r="2.5" />
    <radialGradient
       inkscape:collect="always"
       xlink:href="#linearGradient4226"
       id="radialGradient7012"
       gradientUnits="userSpaceOnUse"
       gradientTransform="matrix(1.325,0,0,1.875,-21.25,-83.437505)"
       cx="50"
       cy="92.5"
       fx="50"
       fy="92.5"
       r="40" />
    <radialGradient
       inkscape:collect="always"
       xlink:href="#linearGradient3645"
       id="radialGradient7014"
       gradientUnits="userSpaceOnUse"
       gradientTransform="matrix(2,0,0,26,190,1280)"
       cx="-90"
       cy="-50"
       fx="-90"
       fy="-50"
       r="2.5" />
    <radialGradient
       inkscape:collect="always"
       xlink:href="#linearGradient4226"
       id="radialGradient7016"
       gradientUnits="userSpaceOnUse"
       gradientTransform="matrix(1.5,1.2500002e-7,-1.5625003e-7,1.875,-24.999986,-83.437511)"
       cx="50"
       cy="92.5"
       fx="50"
       fy="92.5"
       r="40" />
    <radialGradient
       inkscape:collect="always"
       xlink:href="#linearGradient4226"
       id="radialGradient7018"
       gradientUnits="userSpaceOnUse"
       gradientTransform="matrix(1.625,1.25e-7,-1.4423077e-7,1.875,-31.249987,-83.437511)"
       cx="50"
       cy="92.5"
       fx="50"
       fy="92.5"
       r="40" />
    <radialGradient
       inkscape:collect="always"
       xlink:href="#linearGradient4226"
       id="radialGradient7020"
       gradientUnits="userSpaceOnUse"
       gradientTransform="matrix(1.625,1.25e-7,-1.4423077e-7,1.875,-31.249987,-83.437511)"
       cx="50"
       cy="92.5"
       fx="50"
       fy="92.5"
       r="40" />
    <radialGradient
       inkscape:collect="always"
       xlink:href="#linearGradient4226"
       id="radialGradient7022"
       gradientUnits="userSpaceOnUse"
       gradientTransform="matrix(1.5,1.2499998e-7,-1.5624998e-7,1.875,-24.999986,-83.437511)"
       cx="50"
       cy="92.5"
       fx="50"
       fy="92.5"
       r="40" />
    <radialGradient
       inkscape:collect="always"
       xlink:href="#linearGradient4226"
       id="radialGradient7280"
       gradientUnits="userSpaceOnUse"
       gradientTransform="matrix(1.325,0,0,1.875,-16.25,-83.437505)"
       cx="50"
       cy="92.5"
       fx="50"
       fy="92.5"
       r="40" />
    <radialGradient
       inkscape:collect="always"
       xlink:href="#linearGradient3667"
       id="radialGradient7282"
       gradientUnits="userSpaceOnUse"
       gradientTransform="matrix(2.4307765e-7,-1.9999998,2,2.0384709e-7,-25.000004,49.999993)"
       cx="15"
       cy="20"
       fx="15"
       fy="20"
       r="2.5" />
    <radialGradient
       inkscape:collect="always"
       xlink:href="#linearGradient4226"
       id="radialGradient7284"
       gradientUnits="userSpaceOnUse"
       gradientTransform="matrix(1.325,0,0,1.875,-16.25,-83.437505)"
       cx="50"
       cy="92.5"
       fx="50"
       fy="92.5"
       r="40" />
    <radialGradient
       inkscape:collect="always"
       xlink:href="#linearGradient3667"
       id="radialGradient7286"
       gradientUnits="userSpaceOnUse"
       gradientTransform="matrix(2.4307765e-7,-1.9999998,2,2.0384709e-7,-25.000004,49.999993)"
       cx="15"
       cy="20"
       fx="15"
       fy="20"
       r="2.5" />
    <radialGradient
       inkscape:collect="always"
       xlink:href="#linearGradient4226"
       id="radialGradient7288"
       gradientUnits="userSpaceOnUse"
       gradientTransform="matrix(1.325,0,0,1.875,88.75,-103.43751)"
       cx="50"
       cy="92.5"
       fx="50"
       fy="92.5"
       r="40" />
    <linearGradient
       inkscape:collect="always"
       xlink:href="#linearGradient3645"
       id="linearGradient7290"
       gradientUnits="userSpaceOnUse"
       gradientTransform="matrix(1,0,0,1.0769231,-15,-211.53846)"
       x1="10"
       y1="52.5"
       x2="15"
       y2="52.5" />
    <radialGradient
       inkscape:collect="always"
       xlink:href="#linearGradient3681"
       id="radialGradient7292"
       gradientUnits="userSpaceOnUse"
       gradientTransform="matrix(1,0,0,0.2857143,105,-17.857146)"
       cx="50"
       cy="45.000008"
       fx="50"
       fy="45.000008"
       r="35" />
    <radialGradient
       inkscape:collect="always"
       xlink:href="#linearGradient4226"
       id="radialGradient7294"
       gradientUnits="userSpaceOnUse"
       gradientTransform="matrix(1.325,0,0,1.875,-21.25,-83.437505)"
       cx="50"
       cy="92.5"
       fx="50"
       fy="92.5"
       r="40" />
    <radialGradient
       inkscape:collect="always"
       xlink:href="#linearGradient3645"
       id="radialGradient7296"
       gradientUnits="userSpaceOnUse"
       gradientTransform="matrix(2,0,0,26,190,1280)"
       cx="-90"
       cy="-50"
       fx="-90"
       fy="-50"
       r="2.5" />
    <radialGradient
       inkscape:collect="always"
       xlink:href="#linearGradient4226"
       id="radialGradient7298"
       gradientUnits="userSpaceOnUse"
       gradientTransform="matrix(0.85178571,0,0,1.875,-8.3035714,-83.437505)"
       cx="50"
       cy="92.5"
       fx="50"
       fy="92.5"
       r="40" />
    <radialGradient
       inkscape:collect="always"
       xlink:href="#linearGradient3645"
       id="radialGradient7300"
       gradientUnits="userSpaceOnUse"
       gradientTransform="matrix(2,0,0,26,190,1280)"
       cx="-90"
       cy="-50"
       fx="-90"
       fy="-50"
       r="2.5" />
    <radialGradient
       inkscape:collect="always"
       xlink:href="#linearGradient4226"
       id="radialGradient7302"
       gradientUnits="userSpaceOnUse"
       gradientTransform="matrix(1.5,1.2500002e-7,-1.5625003e-7,1.875,-24.999986,-83.437511)"
       cx="50"
       cy="92.5"
       fx="50"
       fy="92.5"
       r="40" />
    <radialGradient
       inkscape:collect="always"
       xlink:href="#linearGradient4226"
       id="radialGradient7304"
       gradientUnits="userSpaceOnUse"
       gradientTransform="matrix(1.625,1.25e-7,-1.4423077e-7,1.875,-31.249987,-83.437511)"
       cx="50"
       cy="92.5"
       fx="50"
       fy="92.5"
       r="40" />
    <radialGradient
       inkscape:collect="always"
       xlink:href="#linearGradient4226"
       id="radialGradient7306"
       gradientUnits="userSpaceOnUse"
       gradientTransform="matrix(1.625,1.25e-7,-1.4423077e-7,1.875,-31.249987,-83.437511)"
       cx="50"
       cy="92.5"
       fx="50"
       fy="92.5"
       r="40" />
    <radialGradient
       inkscape:collect="always"
       xlink:href="#linearGradient4226"
       id="radialGradient7308"
       gradientUnits="userSpaceOnUse"
       gradientTransform="matrix(1.5,1.2499998e-7,-1.5624998e-7,1.875,-24.999986,-83.437511)"
       cx="50"
       cy="92.5"
       fx="50"
       fy="92.5"
       r="40" />
    <radialGradient
       inkscape:collect="always"
       xlink:href="#linearGradient4226"
       id="radialGradient7310"
       gradientUnits="userSpaceOnUse"
       gradientTransform="matrix(1.325,0,0,1.875,-16.25,-83.437505)"
       cx="50"
       cy="92.5"
       fx="50"
       fy="92.5"
       r="40" />
    <radialGradient
       inkscape:collect="always"
       xlink:href="#linearGradient3667"
       id="radialGradient7312"
       gradientUnits="userSpaceOnUse"
       gradientTransform="matrix(2.4307765e-7,-1.9999998,2,2.0384709e-7,-25.000004,49.999993)"
       cx="15"
       cy="20"
       fx="15"
       fy="20"
       r="2.5" />
    <radialGradient
       inkscape:collect="always"
       xlink:href="#linearGradient4226"
       id="radialGradient7314"
       gradientUnits="userSpaceOnUse"
       gradientTransform="matrix(1.325,0,0,1.875,-16.25,-83.437505)"
       cx="50"
       cy="92.5"
       fx="50"
       fy="92.5"
       r="40" />
    <radialGradient
       inkscape:collect="always"
       xlink:href="#linearGradient3667"
       id="radialGradient7316"
       gradientUnits="userSpaceOnUse"
       gradientTransform="matrix(2.4307765e-7,-1.9999998,2,2.0384709e-7,-25.000004,49.999993)"
       cx="15"
       cy="20"
       fx="15"
       fy="20"
       r="2.5" />
    <radialGradient
       inkscape:collect="always"
       xlink:href="#linearGradient4226"
       id="radialGradient7318"
       gradientUnits="userSpaceOnUse"
       gradientTransform="matrix(1.325,0,0,1.875,88.75,-103.43751)"
       cx="50"
       cy="92.5"
       fx="50"
       fy="92.5"
       r="40" />
    <linearGradient
       inkscape:collect="always"
       xlink:href="#linearGradient3645"
       id="linearGradient7320"
       gradientUnits="userSpaceOnUse"
       gradientTransform="matrix(1,0,0,1.0769231,-15,-211.53846)"
       x1="10"
       y1="52.5"
       x2="15"
       y2="52.5" />
    <radialGradient
       inkscape:collect="always"
       xlink:href="#linearGradient3681"
       id="radialGradient7322"
       gradientUnits="userSpaceOnUse"
       gradientTransform="matrix(1,0,0,0.2857143,105,-17.857146)"
       cx="50"
       cy="45.000008"
       fx="50"
       fy="45.000008"
       r="35" />
    <radialGradient
       inkscape:collect="always"
       xlink:href="#linearGradient4226"
       id="radialGradient7324"
       gradientUnits="userSpaceOnUse"
       gradientTransform="matrix(1.325,0,0,1.875,-21.25,-83.437505)"
       cx="50"
       cy="92.5"
       fx="50"
       fy="92.5"
       r="40" />
    <radialGradient
       inkscape:collect="always"
       xlink:href="#linearGradient3645"
       id="radialGradient7326"
       gradientUnits="userSpaceOnUse"
       gradientTransform="matrix(2,0,0,26,190,1280)"
       cx="-90"
       cy="-50"
       fx="-90"
       fy="-50"
       r="2.5" />
    <radialGradient
       inkscape:collect="always"
       xlink:href="#linearGradient4226"
       id="radialGradient7328"
       gradientUnits="userSpaceOnUse"
       gradientTransform="matrix(1.325,0,0,1.875,-21.25,-83.437505)"
       cx="50"
       cy="92.5"
       fx="50"
       fy="92.5"
       r="40" />
    <radialGradient
       inkscape:collect="always"
       xlink:href="#linearGradient3645"
       id="radialGradient7330"
       gradientUnits="userSpaceOnUse"
       gradientTransform="matrix(2,0,0,26,190,1280)"
       cx="-90"
       cy="-50"
       fx="-90"
       fy="-50"
       r="2.5" />
    <radialGradient
       inkscape:collect="always"
       xlink:href="#linearGradient4226"
       id="radialGradient7332"
       gradientUnits="userSpaceOnUse"
       gradientTransform="matrix(1.5,1.2500002e-7,-1.5625003e-7,1.875,-24.999986,-83.437511)"
       cx="50"
       cy="92.5"
       fx="50"
       fy="92.5"
       r="40" />
    <radialGradient
       inkscape:collect="always"
       xlink:href="#linearGradient4226"
       id="radialGradient7334"
       gradientUnits="userSpaceOnUse"
       gradientTransform="matrix(1.625,1.25e-7,-1.4423077e-7,1.875,-31.249987,-83.437511)"
       cx="50"
       cy="92.5"
       fx="50"
       fy="92.5"
       r="40" />
    <radialGradient
       inkscape:collect="always"
       xlink:href="#linearGradient4226"
       id="radialGradient7336"
       gradientUnits="userSpaceOnUse"
       gradientTransform="matrix(1.625,1.25e-7,-1.4423077e-7,1.875,-31.249987,-83.437511)"
       cx="50"
       cy="92.5"
       fx="50"
       fy="92.5"
       r="40" />
    <radialGradient
       inkscape:collect="always"
       xlink:href="#linearGradient4226"
       id="radialGradient7338"
       gradientUnits="userSpaceOnUse"
       gradientTransform="matrix(1.5,1.2499998e-7,-1.5624998e-7,1.875,-24.999986,-83.437511)"
       cx="50"
       cy="92.5"
       fx="50"
       fy="92.5"
       r="40" />
    <radialGradient
       r="40"
       fy="92.5"
       fx="50"
       cy="92.5"
       cx="50"
       gradientTransform="matrix(0.94642857,0,0,1.875,-10.892857,-83.437505)"
       gradientUnits="userSpaceOnUse"
       id="radialGradient10859"
       xlink:href="#linearGradient4226"
       inkscape:collect="always" />
  </defs>
  <metadata
     id="metadata7">
    <rdf:RDF>
      <cc:Work
         rdf:about="">
        <dc:format>image/svg+xml</dc:format>
        <dc:type
           rdf:resource="http://purl.org/dc/dcmitype/StillImage" />
        <dc:title />
      </cc:Work>
    </rdf:RDF>
  </metadata>
  <g
     inkscape:groupmode="layer"
     id="layer2"
     inkscape:label="background"
     style="display:inline">
    <rect
       style="fill:#787878;fill-opacity:1;stroke:none"
       id="hint-stretch-borders"
       width="10"
       height="10"
       x="-35"
       y="-40"
       inkscape:label="#rect3462" />
    <g
       transform="translate(2,9.8076555e-8)"
       inkscape:label="#g5098"
       id="topleft">
      <path
         id="path6710"
         d="m 15,20 0,-5 -5,0 0,5 5,0 z"
         style="fill:#000000;fill-opacity:0.58823529;stroke:none;display:inline" />
      <path
         style="fill:#000000;fill-opacity:0.19607843;stroke:none"
         d="m 15,15 c -2.77,0 -5,2.229999 -5,5 l 5,0 0,-5 z"
         id="path6712" />
      <path
         style="fill:url(#radialGradient6836);fill-opacity:1;stroke:none"
         d="m 15,15 c -2.77,0 -5,2.229999 -5,5 l 5,0 0,-5 z"
         id="path6714" />
      <g
         id="g6716">
        <path
           id="path6718"
           transform="translate(-98,-1)"
           d="m 110,6 0,1 -2,0 0,1 -1,0 0,2 -1,0 0,11 2,0 c 0,-2.77 2.23,-5 5,-5 l 0,-10 -3,0 z"
           style="fill:#ffffff;fill-opacity:0.62745098;stroke:none" />
        <path
           id="path6720"
           d="m 15,15 c -2.77,0 -5,2.23 -5,5 l 1,0 c 0,-2.216 1.784,-4 4,-4 l 0,-1 z"
           style="fill:#646464;fill-opacity:0.39215686;stroke:none" />
        <path
           sodipodi:end="4.712389"
           sodipodi:start="3.1415927"
           d="m 10,20 c 0,-2.761424 2.238576,-5 5,-5 l 0,5 z"
           sodipodi:ry="5"
           sodipodi:rx="5"
           sodipodi:cy="20"
           sodipodi:cx="15"
           id="path6722"
           style="opacity:0.88000004;fill:url(#radialGradient6838);fill-opacity:1;stroke:none"
           sodipodi:type="arc"
           transform="matrix(0,1,1,0,-4.9999998,5)" />
      </g>
    </g>
    <g
       inkscape:label="#g5204"
       transform="translate(-103,20.000002)"
       id="top">
      <path
         id="path6742"
         d="m 120,-2e-6 0,-5 70,0 0,5 -70,0 z"
         style="fill:#000000;fill-opacity:0.58823529;stroke:none;display:inline" />
      <path
         style="fill:#000000;fill-opacity:0.19607843;stroke:none"
         d="m 120,-5 0,5 70,0 0,-5 -70,0 z"
         id="path6744" />
      <path
         style="fill:url(#radialGradient6844);fill-opacity:1;stroke:none"
         d="m 120,-5 0,5 70,0 0,-5 -70,0 z"
         id="path6746" />
      <path
         style="fill:#ffffff;fill-opacity:0.62745098;stroke:none"
         d="m 120,-15 0,10 70,0 0,-10 -70,0 z"
         id="path6748" />
      <path
         style="fill:#646464;fill-opacity:0.39215686;stroke:none"
         d="m 120,-5 0,1 70,0 0,-1 -70,0 z"
         id="path6750" />
      <rect
         ry="0"
         rx="0"
         y="-190"
         x="-5.000001"
         height="70"
         width="5"
         id="rect6752"
         style="fill:url(#linearGradient6846);fill-opacity:1;stroke:none"
         transform="matrix(0,1,-1,0,0,0)" />
      <rect
         style="opacity:0.88000004;fill:url(#radialGradient6848);fill-opacity:1;stroke:none"
         id="rect6754"
         width="70"
         height="10"
         x="120"
         y="-15.000002"
         rx="0"
         ry="0" />
    </g>
    <g
       transform="translate(2,9.8076555e-8)"
       inkscape:label="#g5315"
       id="left">
      <path
         id="path6758"
         d="m 15,20 0,65 -5,0 0,-65 5,0 z"
         style="fill:#000000;fill-opacity:0.58823529;stroke:none;display:inline" />
      <path
         style="fill:#000000;fill-opacity:0.19607843;stroke:none"
         d="m 10,20 0,65 5,0 0,-65 -5,0 z"
         id="path6760" />
      <path
         sodipodi:nodetypes="ccccc"
         style="fill:url(#radialGradient6850);fill-opacity:1;stroke:none"
         d="m 8,20 0,65 7,0 0,-65 -7,0 z"
         id="path6762" />
      <path
         sodipodi:nodetypes="ccccc"
         style="fill:#ffffff;fill-opacity:0.62745098;stroke:none"
         d="m 8,20 0,65 2,0 0,-65 -2,0 z"
         id="path6764" />
      <path
         style="fill:#646464;fill-opacity:0.39215686;stroke:none"
         d="m 10,20 0,65 1,0 0,-65 -1,0 z"
         id="path6766" />
      <rect
         ry="0"
         rx="0"
         y="-85"
         x="10"
         height="65"
         width="5"
         id="rect6768"
         style="fill:url(#radialGradient6852);fill-opacity:1;stroke:none"
         transform="scale(1,-1)" />
    </g>
    <g
       transform="translate(2,9.8076555e-8)"
       inkscape:label="#g5412"
       id="center">
      <path
         id="path6786"
         d="m 15,20 0,65 70,0 0,-65 -70,0 z"
         style="fill:#000000;fill-opacity:0.58823529;stroke:none" />
      <path
         style="fill:#000000;fill-opacity:0.19607843;stroke:none"
         d="m 15,20 0,65 70,0 0,-65 -70,0 z"
         id="path6788" />
      <path
         style="fill:url(#radialGradient6858);fill-opacity:1;stroke:none"
         d="m 15,20 0,65 70,0 0,-65 -70,0 z"
         id="path6790" />
    </g>
    <g
       transform="translate(2,9.8076555e-8)"
       inkscape:label="#g5546"
       id="bottomleft">
      <path
         id="path6794"
         d="m 15,90 0,-5 -5,0 0,5 5,0 z"
         style="fill:#000000;fill-opacity:0.58823529;stroke:none;display:inline" />
      <path
         style="fill:#000000;fill-opacity:0.19607843;stroke:none"
         d="m 10,85 c 0,2.77 2.23,4.999999 5,5 l 0,-5 -5,0 z"
         id="path6796" />
      <path
         style="fill:url(#radialGradient6860);fill-opacity:1;stroke:none"
         d="m 10,85 c 0,2.77 2.23,4.999999 5,5 l 0,-5 -5,0 z"
         id="path6798" />
      <g
         inkscape:label="#g5098"
         id="g6800"
         transform="matrix(1,0,0,-1,-1.9073486e-6,105)">
        <g
           id="g6802"
           transform="translate(1.9393996e-6,0)">
          <path
             id="path6804"
             transform="matrix(1,0,0,-1,-98,106)"
             d="m 106,86 0,3 1,0 0,2 1,0 0,1 2,0 0,1 3,0 0,-2 c -2.77,0 -5,-2.23 -5,-5 l -2,0 z"
             style="fill:#ffffff;fill-opacity:0.62745098;stroke:none" />
          <path
             id="path6806"
             d="m 15,15 c -2.77,0 -5,2.23 -5,5 l 1,0 c 0,-2.216 1.784,-4 4,-4 l 0,-1 z"
             style="fill:#646464;fill-opacity:0.39215686;stroke:none" />
        </g>
      </g>
    </g>
    <g
       transform="translate(2,9.8076555e-8)"
       inkscape:label="#g5631"
       id="bottom">
      <path
         id="path6826"
         d="m 15,90 0,-5 70,0 0,5 -70,0 z"
         style="fill:#000000;fill-opacity:0.58823529;stroke:none;display:inline" />
      <path
         style="fill:#000000;fill-opacity:0.19607843;stroke:none"
         d="m 15,85 0,5 70,0 0,-5 -70,0 z"
         id="path6828" />
      <path
         style="fill:url(#radialGradient6864);fill-opacity:1;stroke:none"
         d="m 15,85 0,5 70,0 0,-5 -70,0 z"
         id="path6830" />
      <path
         style="fill:#646464;fill-opacity:0.39215686;stroke:none"
         d="m 15,89 0,1 70,0 0,-1 -70,0 z"
         id="path6832" />
      <path
         sodipodi:nodetypes="ccccc"
         style="fill:#ffffff;fill-opacity:0.62745098;stroke:none"
         d="m 15,90 0,2 70,0 0,-2 -70,0 z"
         id="path6834" />
    </g>
    <g
       id="topright"
       inkscape:label="#g5098"
       transform="matrix(-1,0,0,1,102,0)">
      <path
         style="fill:#000000;fill-opacity:0.58823529;stroke:none;display:inline"
         d="m 15,20 0,-5 -5,0 0,5 5,0 z"
         id="path7170" />
      <path
         id="path7172"
         d="m 15,15 c -2.77,0 -5,2.229999 -5,5 l 5,0 0,-5 z"
         style="fill:#000000;fill-opacity:0.19607843;stroke:none" />
      <path
         id="path7174"
         d="m 15,15 c -2.77,0 -5,2.229999 -5,5 l 5,0 0,-5 z"
         style="fill:url(#radialGradient7314);fill-opacity:1;stroke:none" />
      <g
         id="g7176">
        <path
           id="path7178"
           transform="matrix(-1,0,0,1,-0.9999998,-1)"
           d="m -16,6 0,10 c 2.77,0 5,2.23 5,5 l 2,0 0,-11 -1,0 0,-2 -1,0 0,-1 -2,0 0,-1 -3,0 z"
           style="fill:#ffffff;fill-opacity:0.62745098;stroke:none" />
        <path
           style="fill:#646464;fill-opacity:0.39215686;stroke:none"
           d="m 15,15 c -2.77,0 -5,2.23 -5,5 l 1,0 c 0,-2.216 1.784,-4 4,-4 l 0,-1 z"
           id="path7180" />
        <path
           transform="matrix(0,1,1,0,-4.9999998,5)"
           sodipodi:type="arc"
           style="opacity:0.88000004;fill:url(#radialGradient7316);fill-opacity:1;stroke:none"
           id="path7182"
           sodipodi:cx="15"
           sodipodi:cy="20"
           sodipodi:rx="5"
           sodipodi:ry="5"
           d="m 10,20 c 0,-2.761424 2.238576,-5 5,-5 l 0,5 z"
           sodipodi:start="3.1415927"
           sodipodi:end="4.712389" />
      </g>
    </g>
    <g
       id="right"
       inkscape:label="#g5315"
       transform="matrix(-1,0,0,1,102,0)">
      <path
         style="fill:#000000;fill-opacity:0.58823529;stroke:none;display:inline"
         d="m 15,20 0,65 -5,0 0,-65 5,0 z"
         id="path7216" />
      <path
         id="path7218"
         d="m 10,20 0,65 5,0 0,-65 -5,0 z"
         style="fill:#000000;fill-opacity:0.19607843;stroke:none" />
      <path
         sodipodi:nodetypes="ccccc"
         id="path7220"
         d="m 8,19.999998 0,65 7,2e-6 0,-65 -7,-2e-6 z"
         style="fill:url(#radialGradient7328);fill-opacity:1;stroke:none" />
      <path
         sodipodi:nodetypes="ccccc"
         id="path7222"
         d="m 8,19.999998 0,65 2,2e-6 0,-65 -2,-2e-6 z"
         style="fill:#ffffff;fill-opacity:0.62745098;stroke:none" />
      <path
         id="path7224"
         d="m 10,20 0,65 1,0 0,-65 -1,0 z"
         style="fill:#646464;fill-opacity:0.39215686;stroke:none" />
      <rect
         transform="scale(1,-1)"
         style="fill:url(#radialGradient7330);fill-opacity:1;stroke:none"
         id="rect7226"
         width="5"
         height="65"
         x="10"
         y="-85"
         rx="0"
         ry="0" />
    </g>
    <g
       id="bottomright"
       inkscape:label="#g5546"
       transform="matrix(-1,0,0,1,102,0)">
      <path
         style="fill:#000000;fill-opacity:0.58823529;stroke:none;display:inline"
         d="m 15,90 0,-5 -5,0 0,5 5,0 z"
         id="path7254" />
      <path
         id="path7256"
         d="m 10,85 c 0,2.77 2.23,4.999999 5,5 l 0,-5 -5,0 z"
         style="fill:#000000;fill-opacity:0.19607843;stroke:none" />
      <path
         id="path7258"
         d="m 10,85 c 0,2.77 2.23,4.999999 5,5 l 0,-5 -5,0 z"
         style="fill:url(#radialGradient7336);fill-opacity:1;stroke:none" />
      <g
         transform="matrix(1,0,0,-1,-1.9073486e-6,105)"
         id="g7260"
         inkscape:label="#g5098">
        <g
           transform="translate(1.9393996e-6,0)"
           id="g7262">
          <path
             id="path7264"
             transform="matrix(-1,0,0,-1,-1,106)"
             d="m -11,86 c 0,2.77 -2.23,5 -5,5 l 0,2 3,0 0,-1 2,0 0,-1 1,0 0,-2 1,0 0,-3 -2,0 z"
             style="fill:#ffffff;fill-opacity:0.62745098;stroke:none" />
          <path
             style="fill:#646464;fill-opacity:0.39215686;stroke:none"
             d="m 15,15 c -2.77,0 -5,2.23 -5,5 l 1,0 c 0,-2.216 1.784,-4 4,-4 l 0,-1 z"
             id="path7266" />
        </g>
      </g>
    </g>
  </g>
  <g
     inkscape:label="Layer 1"
     inkscape:groupmode="layer"
     id="layer1"
     style="display:inline" />
</svg>
